ip_repo/edit_axi_7seg_v1_0.sim/sim_1/behav/xsim/display_decoder_tb.vcd
$date
   Thu Oct  2 08:37:13 2025
$end

$version
  2025.1.0
  $dumpfile ("display_decoder_tb.vcd") 
$end

$timescale
  1ps
$end

$scope module display_decoder_tb $end
$var reg 1 ! clk $end
$var reg 1 " aresetn $end
$var reg 4 # an_in [3:0] $end
$var reg 8 $ dig_0_in [7:0] $end
$var reg 8 % dig_1_in [7:0] $end
$var reg 8 & dig_2_in [7:0] $end
$var reg 8 ' dig_3_in [7:0] $end
$var wire 4 ( an_out [3:0] $end
$var wire 8 ) seg_out [7:0] $end
$var wire 11 * cnt100K [10:0] $end
$var wire 8 + dig_0_dec [7:0] $end
$var wire 8 , dig_1_dec [7:0] $end
$var wire 8 - dig_2_dec [7:0] $end
$var wire 8 . dig_3_dec [7:0] $end
$var integer 32 / cycle_count [31:0] $end
$var reg 11 0 prev_cnt100K [10:0] $end
$scope module dut $end
$var wire 1 1 clk $end
$var wire 1 2 aresetn $end
$var wire 4 3 an_in [3:0] $end
$var wire 8 4 dig_0_in [7:0] $end
$var wire 8 5 dig_1_in [7:0] $end
$var wire 8 6 dig_2_in [7:0] $end
$var wire 8 7 dig_3_in [7:0] $end
$var reg 4 8 an_out [3:0] $end
$var reg 8 9 seg_out [7:0] $end
$var reg 8 : dig_0_dec [7:0] $end
$var reg 8 ; dig_1_dec [7:0] $end
$var reg 8 < dig_2_dec [7:0] $end
$var reg 8 = dig_3_dec [7:0] $end
$var reg 11 > cnt100K [10:0] $end
$upscope $end
$upscope $end
$enddefinitions $end

#0
$dumpvars
0!
0"
b0 #
b0 $
b1 %
b10 &
b11 '
bx (
bx )
bx *
b11000000 +
b11111001 ,
b10100100 -
b10110000 .
b0 /
bx 0
01
02
b0 3
b0 4
b1 5
b10 6
b11 7
bx 8
bx 9
b11000000 :
b11111001 ;
b10100100 <
b10110000 =
bx >
$end

#5000
1!
b1111 (
b11111111 )
b0 *
11
b1111 8
b11111111 9
b0 >

#10000
0!
01

#15000
1!
11

#20000
0!
01

#25000
1!
11

#30000
0!
01

#35000
1!
11

#40000
0!
01

#45000
1!
11

#50000
0!
01

#55000
1!
11

#60000
0!
01

#65000
1!
11

#70000
0!
01

#75000
1!
11

#80000
0!
01

#85000
1!
11

#90000
0!
01

#95000
1!
11

#100000
0!
1"
01
12

#105000
1!
b0 (
b11000000 )
b1 *
b1 /
b0 0
11
b0 8
b11000000 9
b1 >

#110000
0!
01

#115000
1!
b10 *
b10 /
b1 0
11
b10 >

#120000
0!
01

#125000
1!
b11 *
b11 /
b10 0
11
b11 >

#130000
0!
01

#135000
1!
b100 *
b100 /
b11 0
11
b100 >

#140000
0!
01

#145000
1!
b101 *
b101 /
b100 0
11
b101 >

#150000
0!
01

#155000
1!
b110 *
b110 /
b101 0
11
b110 >

#160000
0!
01

#165000
1!
b111 *
b111 /
b110 0
11
b111 >

#170000
0!
01

#175000
1!
b1000 *
b1000 /
b111 0
11
b1000 >

#180000
0!
01

#185000
1!
b1001 *
b1001 /
b1000 0
11
b1001 >

#190000
0!
01

#195000
1!
b1010 *
b1010 /
b1001 0
11
b1010 >

#200000
0!
01

#205000
1!
b1011 *
b1011 /
b1010 0
11
b1011 >

#210000
0!
01

#215000
1!
b1100 *
b1100 /
b1011 0
11
b1100 >

#220000
0!
01

#225000
1!
b1101 *
b1101 /
b1100 0
11
b1101 >

#230000
0!
01

#235000
1!
b1110 *
b1110 /
b1101 0
11
b1110 >

#240000
0!
01

#245000
1!
b1111 *
b1111 /
b1110 0
11
b1111 >

#250000
0!
01

#255000
1!
b10000 *
b10000 /
b1111 0
11
b10000 >

#260000
0!
01

#265000
1!
b10001 *
b10001 /
b10000 0
11
b10001 >

#270000
0!
01

#275000
1!
b10010 *
b10010 /
b10001 0
11
b10010 >

#280000
0!
01

#285000
1!
b10011 *
b10011 /
b10010 0
11
b10011 >

#290000
0!
01

#295000
1!
b10100 *
b10100 /
b10011 0
11
b10100 >

#300000
0!
01

#305000
1!
b10101 *
b10101 /
b10100 0
11
b10101 >

#310000
0!
01

#315000
1!
b10110 *
b10110 /
b10101 0
11
b10110 >

#320000
0!
01

#325000
1!
b10111 *
b10111 /
b10110 0
11
b10111 >

#330000
0!
01

#335000
1!
b11000 *
b11000 /
b10111 0
11
b11000 >

#340000
0!
01

#345000
1!
b11001 *
b11001 /
b11000 0
11
b11001 >

#350000
0!
01

#355000
1!
b11010 *
b11010 /
b11001 0
11
b11010 >

#360000
0!
01

#365000
1!
b11011 *
b11011 /
b11010 0
11
b11011 >

#370000
0!
01

#375000
1!
b11100 *
b11100 /
b11011 0
11
b11100 >

#380000
0!
01

#385000
1!
b11101 *
b11101 /
b11100 0
11
b11101 >

#390000
0!
01

#395000
1!
b11110 *
b11110 /
b11101 0
11
b11110 >

#400000
0!
01

#405000
1!
b11111 *
b11111 /
b11110 0
11
b11111 >

#410000
0!
01

#415000
1!
b100000 *
b100000 /
b11111 0
11
b100000 >

#420000
0!
01

#425000
1!
b100001 *
b100001 /
b100000 0
11
b100001 >

#430000
0!
01

#435000
1!
b100010 *
b100010 /
b100001 0
11
b100010 >

#440000
0!
01

#445000
1!
b100011 *
b100011 /
b100010 0
11
b100011 >

#450000
0!
01

#455000
1!
b100100 *
b100100 /
b100011 0
11
b100100 >

#460000
0!
01

#465000
1!
b100101 *
b100101 /
b100100 0
11
b100101 >

#470000
0!
01

#475000
1!
b100110 *
b100110 /
b100101 0
11
b100110 >

#480000
0!
01

#485000
1!
b100111 *
b100111 /
b100110 0
11
b100111 >

#490000
0!
01

#495000
1!
b101000 *
b101000 /
b100111 0
11
b101000 >

#500000
0!
01

#505000
1!
b101001 *
b101001 /
b101000 0
11
b101001 >

#510000
0!
01

#515000
1!
b101010 *
b101010 /
b101001 0
11
b101010 >

#520000
0!
01

#525000
1!
b101011 *
b101011 /
b101010 0
11
b101011 >

#530000
0!
01

#535000
1!
b101100 *
b101100 /
b101011 0
11
b101100 >

#540000
0!
01

#545000
1!
b101101 *
b101101 /
b101100 0
11
b101101 >

#550000
0!
01

#555000
1!
b101110 *
b101110 /
b101101 0
11
b101110 >

#560000
0!
01

#565000
1!
b101111 *
b101111 /
b101110 0
11
b101111 >

#570000
0!
01

#575000
1!
b110000 *
b110000 /
b101111 0
11
b110000 >

#580000
0!
01

#585000
1!
b110001 *
b110001 /
b110000 0
11
b110001 >

#590000
0!
01

#595000
1!
b110010 *
b110010 /
b110001 0
11
b110010 >

#600000
0!
01

#605000
1!
b110011 *
b110011 /
b110010 0
11
b110011 >

#610000
0!
01

#615000
1!
b110100 *
b110100 /
b110011 0
11
b110100 >

#620000
0!
01

#625000
1!
b110101 *
b110101 /
b110100 0
11
b110101 >

#630000
0!
01

#635000
1!
b110110 *
b110110 /
b110101 0
11
b110110 >

#640000
0!
01

#645000
1!
b110111 *
b110111 /
b110110 0
11
b110111 >

#650000
0!
01

#655000
1!
b111000 *
b111000 /
b110111 0
11
b111000 >

#660000
0!
01

#665000
1!
b111001 *
b111001 /
b111000 0
11
b111001 >

#670000
0!
01

#675000
1!
b111010 *
b111010 /
b111001 0
11
b111010 >

#680000
0!
01

#685000
1!
b111011 *
b111011 /
b111010 0
11
b111011 >

#690000
0!
01

#695000
1!
b111100 *
b111100 /
b111011 0
11
b111100 >

#700000
0!
01

#705000
1!
b111101 *
b111101 /
b111100 0
11
b111101 >

#710000
0!
01

#715000
1!
b111110 *
b111110 /
b111101 0
11
b111110 >

#720000
0!
01

#725000
1!
b111111 *
b111111 /
b111110 0
11
b111111 >

#730000
0!
01

#735000
1!
b1000000 *
b1000000 /
b111111 0
11
b1000000 >

#740000
0!
01

#745000
1!
b1000001 *
b1000001 /
b1000000 0
11
b1000001 >

#750000
0!
01

#755000
1!
b1000010 *
b1000010 /
b1000001 0
11
b1000010 >

#760000
0!
01

#765000
1!
b1000011 *
b1000011 /
b1000010 0
11
b1000011 >

#770000
0!
01

#775000
1!
b1000100 *
b1000100 /
b1000011 0
11
b1000100 >

#780000
0!
01

#785000
1!
b1000101 *
b1000101 /
b1000100 0
11
b1000101 >

#790000
0!
01

#795000
1!
b1000110 *
b1000110 /
b1000101 0
11
b1000110 >

#800000
0!
01

#805000
1!
b1000111 *
b1000111 /
b1000110 0
11
b1000111 >

#810000
0!
01

#815000
1!
b1001000 *
b1001000 /
b1000111 0
11
b1001000 >

#820000
0!
01

#825000
1!
b1001001 *
b1001001 /
b1001000 0
11
b1001001 >

#830000
0!
01

#835000
1!
b1001010 *
b1001010 /
b1001001 0
11
b1001010 >

#840000
0!
01

#845000
1!
b1001011 *
b1001011 /
b1001010 0
11
b1001011 >

#850000
0!
01

#855000
1!
b1001100 *
b1001100 /
b1001011 0
11
b1001100 >

#860000
0!
01

#865000
1!
b1001101 *
b1001101 /
b1001100 0
11
b1001101 >

#870000
0!
01

#875000
1!
b1001110 *
b1001110 /
b1001101 0
11
b1001110 >

#880000
0!
01

#885000
1!
b1001111 *
b1001111 /
b1001110 0
11
b1001111 >

#890000
0!
01

#895000
1!
b1010000 *
b1010000 /
b1001111 0
11
b1010000 >

#900000
0!
01

#905000
1!
b1010001 *
b1010001 /
b1010000 0
11
b1010001 >

#910000
0!
01

#915000
1!
b1010010 *
b1010010 /
b1010001 0
11
b1010010 >

#920000
0!
01

#925000
1!
b1010011 *
b1010011 /
b1010010 0
11
b1010011 >

#930000
0!
01

#935000
1!
b1010100 *
b1010100 /
b1010011 0
11
b1010100 >

#940000
0!
01

#945000
1!
b1010101 *
b1010101 /
b1010100 0
11
b1010101 >

#950000
0!
01

#955000
1!
b1010110 *
b1010110 /
b1010101 0
11
b1010110 >

#960000
0!
01

#965000
1!
b1010111 *
b1010111 /
b1010110 0
11
b1010111 >

#970000
0!
01

#975000
1!
b1011000 *
b1011000 /
b1010111 0
11
b1011000 >

#980000
0!
01

#985000
1!
b1011001 *
b1011001 /
b1011000 0
11
b1011001 >

#990000
0!
01

#995000
1!
b1011010 *
b1011010 /
b1011001 0
11
b1011010 >

#1000000
0!
01

#1005000
1!
b1011011 *
b1011011 /
b1011010 0
11
b1011011 >

#1010000
0!
01

#1015000
1!
b1011100 *
b1011100 /
b1011011 0
11
b1011100 >

#1020000
0!
01

#1025000
1!
b1011101 *
b1011101 /
b1011100 0
11
b1011101 >

#1030000
0!
01

#1035000
1!
b1011110 *
b1011110 /
b1011101 0
11
b1011110 >

#1040000
0!
01

#1045000
1!
b1011111 *
b1011111 /
b1011110 0
11
b1011111 >

#1050000
0!
01

#1055000
1!
b1100000 *
b1100000 /
b1011111 0
11
b1100000 >

#1060000
0!
01

#1065000
1!
b1100001 *
b1100001 /
b1100000 0
11
b1100001 >

#1070000
0!
01

#1075000
1!
b1100010 *
b1100010 /
b1100001 0
11
b1100010 >

#1080000
0!
01

#1085000
1!
b1100011 *
b1100011 /
b1100010 0
11
b1100011 >

#1090000
0!
01

#1095000
1!
b1100100 *
b1100100 /
b1100011 0
11
b1100100 >

#1100000
0!
01

#1105000
1!
b1100101 *
b1100101 /
b1100100 0
11
b1100101 >

#1110000
0!
01

#1115000
1!
b1100110 *
b1100110 /
b1100101 0
11
b1100110 >

#1120000
0!
01

#1125000
1!
b1100111 *
b1100111 /
b1100110 0
11
b1100111 >

#1130000
0!
01

#1135000
1!
b1101000 *
b1101000 /
b1100111 0
11
b1101000 >

#1140000
0!
01

#1145000
1!
b1101001 *
b1101001 /
b1101000 0
11
b1101001 >

#1150000
0!
01

#1155000
1!
b1101010 *
b1101010 /
b1101001 0
11
b1101010 >

#1160000
0!
01

#1165000
1!
b1101011 *
b1101011 /
b1101010 0
11
b1101011 >

#1170000
0!
01

#1175000
1!
b1101100 *
b1101100 /
b1101011 0
11
b1101100 >

#1180000
0!
01

#1185000
1!
b1101101 *
b1101101 /
b1101100 0
11
b1101101 >

#1190000
0!
01

#1195000
1!
b1101110 *
b1101110 /
b1101101 0
11
b1101110 >

#1200000
0!
01

#1205000
1!
b1101111 *
b1101111 /
b1101110 0
11
b1101111 >

#1210000
0!
01

#1215000
1!
b1110000 *
b1110000 /
b1101111 0
11
b1110000 >

#1220000
0!
01

#1225000
1!
b1110001 *
b1110001 /
b1110000 0
11
b1110001 >

#1230000
0!
01

#1235000
1!
b1110010 *
b1110010 /
b1110001 0
11
b1110010 >

#1240000
0!
01

#1245000
1!
b1110011 *
b1110011 /
b1110010 0
11
b1110011 >

#1250000
0!
01

#1255000
1!
b1110100 *
b1110100 /
b1110011 0
11
b1110100 >

#1260000
0!
01

#1265000
1!
b1110101 *
b1110101 /
b1110100 0
11
b1110101 >

#1270000
0!
01

#1275000
1!
b1110110 *
b1110110 /
b1110101 0
11
b1110110 >

#1280000
0!
01

#1285000
1!
b1110111 *
b1110111 /
b1110110 0
11
b1110111 >

#1290000
0!
01

#1295000
1!
b1111000 *
b1111000 /
b1110111 0
11
b1111000 >

#1300000
0!
01

#1305000
1!
b1111001 *
b1111001 /
b1111000 0
11
b1111001 >

#1310000
0!
01

#1315000
1!
b1111010 *
b1111010 /
b1111001 0
11
b1111010 >

#1320000
0!
01

#1325000
1!
b1111011 *
b1111011 /
b1111010 0
11
b1111011 >

#1330000
0!
01

#1335000
1!
b1111100 *
b1111100 /
b1111011 0
11
b1111100 >

#1340000
0!
01

#1345000
1!
b1111101 *
b1111101 /
b1111100 0
11
b1111101 >

#1350000
0!
01

#1355000
1!
b1111110 *
b1111110 /
b1111101 0
11
b1111110 >

#1360000
0!
01

#1365000
1!
b1111111 *
b1111111 /
b1111110 0
11
b1111111 >

#1370000
0!
01

#1375000
1!
b10000000 *
b10000000 /
b1111111 0
11
b10000000 >

#1380000
0!
01

#1385000
1!
b10000001 *
b10000001 /
b10000000 0
11
b10000001 >

#1390000
0!
01

#1395000
1!
b10000010 *
b10000010 /
b10000001 0
11
b10000010 >

#1400000
0!
01

#1405000
1!
b10000011 *
b10000011 /
b10000010 0
11
b10000011 >

#1410000
0!
01

#1415000
1!
b10000100 *
b10000100 /
b10000011 0
11
b10000100 >

#1420000
0!
01

#1425000
1!
b10000101 *
b10000101 /
b10000100 0
11
b10000101 >

#1430000
0!
01

#1435000
1!
b10000110 *
b10000110 /
b10000101 0
11
b10000110 >

#1440000
0!
01

#1445000
1!
b10000111 *
b10000111 /
b10000110 0
11
b10000111 >

#1450000
0!
01

#1455000
1!
b10001000 *
b10001000 /
b10000111 0
11
b10001000 >

#1460000
0!
01

#1465000
1!
b10001001 *
b10001001 /
b10001000 0
11
b10001001 >

#1470000
0!
01

#1475000
1!
b10001010 *
b10001010 /
b10001001 0
11
b10001010 >

#1480000
0!
01

#1485000
1!
b10001011 *
b10001011 /
b10001010 0
11
b10001011 >

#1490000
0!
01

#1495000
1!
b10001100 *
b10001100 /
b10001011 0
11
b10001100 >

#1500000
0!
01

#1505000
1!
b10001101 *
b10001101 /
b10001100 0
11
b10001101 >

#1510000
0!
01

#1515000
1!
b10001110 *
b10001110 /
b10001101 0
11
b10001110 >

#1520000
0!
01

#1525000
1!
b10001111 *
b10001111 /
b10001110 0
11
b10001111 >

#1530000
0!
01

#1535000
1!
b10010000 *
b10010000 /
b10001111 0
11
b10010000 >

#1540000
0!
01

#1545000
1!
b10010001 *
b10010001 /
b10010000 0
11
b10010001 >

#1550000
0!
01

#1555000
1!
b10010010 *
b10010010 /
b10010001 0
11
b10010010 >

#1560000
0!
01

#1565000
1!
b10010011 *
b10010011 /
b10010010 0
11
b10010011 >

#1570000
0!
01

#1575000
1!
b10010100 *
b10010100 /
b10010011 0
11
b10010100 >

#1580000
0!
01

#1585000
1!
b10010101 *
b10010101 /
b10010100 0
11
b10010101 >

#1590000
0!
01

#1595000
1!
b10010110 *
b10010110 /
b10010101 0
11
b10010110 >

#1600000
0!
01

#1605000
1!
b10010111 *
b10010111 /
b10010110 0
11
b10010111 >

#1610000
0!
01

#1615000
1!
b10011000 *
b10011000 /
b10010111 0
11
b10011000 >

#1620000
0!
01

#1625000
1!
b10011001 *
b10011001 /
b10011000 0
11
b10011001 >

#1630000
0!
01

#1635000
1!
b10011010 *
b10011010 /
b10011001 0
11
b10011010 >

#1640000
0!
01

#1645000
1!
b10011011 *
b10011011 /
b10011010 0
11
b10011011 >

#1650000
0!
01

#1655000
1!
b10011100 *
b10011100 /
b10011011 0
11
b10011100 >

#1660000
0!
01

#1665000
1!
b10011101 *
b10011101 /
b10011100 0
11
b10011101 >

#1670000
0!
01

#1675000
1!
b10011110 *
b10011110 /
b10011101 0
11
b10011110 >

#1680000
0!
01

#1685000
1!
b10011111 *
b10011111 /
b10011110 0
11
b10011111 >

#1690000
0!
01

#1695000
1!
b10100000 *
b10100000 /
b10011111 0
11
b10100000 >

#1700000
0!
01

#1705000
1!
b10100001 *
b10100001 /
b10100000 0
11
b10100001 >

#1710000
0!
01

#1715000
1!
b10100010 *
b10100010 /
b10100001 0
11
b10100010 >

#1720000
0!
01

#1725000
1!
b10100011 *
b10100011 /
b10100010 0
11
b10100011 >

#1730000
0!
01

#1735000
1!
b10100100 *
b10100100 /
b10100011 0
11
b10100100 >

#1740000
0!
01

#1745000
1!
b10100101 *
b10100101 /
b10100100 0
11
b10100101 >

#1750000
0!
01

#1755000
1!
b10100110 *
b10100110 /
b10100101 0
11
b10100110 >

#1760000
0!
01

#1765000
1!
b10100111 *
b10100111 /
b10100110 0
11
b10100111 >

#1770000
0!
01

#1775000
1!
b10101000 *
b10101000 /
b10100111 0
11
b10101000 >

#1780000
0!
01

#1785000
1!
b10101001 *
b10101001 /
b10101000 0
11
b10101001 >

#1790000
0!
01

#1795000
1!
b10101010 *
b10101010 /
b10101001 0
11
b10101010 >

#1800000
0!
01

#1805000
1!
b10101011 *
b10101011 /
b10101010 0
11
b10101011 >

#1810000
0!
01

#1815000
1!
b10101100 *
b10101100 /
b10101011 0
11
b10101100 >

#1820000
0!
01

#1825000
1!
b10101101 *
b10101101 /
b10101100 0
11
b10101101 >

#1830000
0!
01

#1835000
1!
b10101110 *
b10101110 /
b10101101 0
11
b10101110 >

#1840000
0!
01

#1845000
1!
b10101111 *
b10101111 /
b10101110 0
11
b10101111 >

#1850000
0!
01

#1855000
1!
b10110000 *
b10110000 /
b10101111 0
11
b10110000 >

#1860000
0!
01

#1865000
1!
b10110001 *
b10110001 /
b10110000 0
11
b10110001 >

#1870000
0!
01

#1875000
1!
b10110010 *
b10110010 /
b10110001 0
11
b10110010 >

#1880000
0!
01

#1885000
1!
b10110011 *
b10110011 /
b10110010 0
11
b10110011 >

#1890000
0!
01

#1895000
1!
b10110100 *
b10110100 /
b10110011 0
11
b10110100 >

#1900000
0!
01

#1905000
1!
b10110101 *
b10110101 /
b10110100 0
11
b10110101 >

#1910000
0!
01

#1915000
1!
b10110110 *
b10110110 /
b10110101 0
11
b10110110 >

#1920000
0!
01

#1925000
1!
b10110111 *
b10110111 /
b10110110 0
11
b10110111 >

#1930000
0!
01

#1935000
1!
b10111000 *
b10111000 /
b10110111 0
11
b10111000 >

#1940000
0!
01

#1945000
1!
b10111001 *
b10111001 /
b10111000 0
11
b10111001 >

#1950000
0!
01

#1955000
1!
b10111010 *
b10111010 /
b10111001 0
11
b10111010 >

#1960000
0!
01

#1965000
1!
b10111011 *
b10111011 /
b10111010 0
11
b10111011 >

#1970000
0!
01

#1975000
1!
b10111100 *
b10111100 /
b10111011 0
11
b10111100 >

#1980000
0!
01

#1985000
1!
b10111101 *
b10111101 /
b10111100 0
11
b10111101 >

#1990000
0!
01

#1995000
1!
b10111110 *
b10111110 /
b10111101 0
11
b10111110 >

#2000000
0!
01

#2005000
1!
b10111111 *
b10111111 /
b10111110 0
11
b10111111 >

#2010000
0!
01

#2015000
1!
b11000000 *
b11000000 /
b10111111 0
11
b11000000 >

#2020000
0!
01

#2025000
1!
b11000001 *
b11000001 /
b11000000 0
11
b11000001 >

#2030000
0!
01

#2035000
1!
b11000010 *
b11000010 /
b11000001 0
11
b11000010 >

#2040000
0!
01

#2045000
1!
b11000011 *
b11000011 /
b11000010 0
11
b11000011 >

#2050000
0!
01

#2055000
1!
b11000100 *
b11000100 /
b11000011 0
11
b11000100 >

#2060000
0!
01

#2065000
1!
b11000101 *
b11000101 /
b11000100 0
11
b11000101 >

#2070000
0!
01

#2075000
1!
b11000110 *
b11000110 /
b11000101 0
11
b11000110 >

#2080000
0!
01

#2085000
1!
b11000111 *
b11000111 /
b11000110 0
11
b11000111 >

#2090000
0!
01

#2095000
1!
b11001000 *
b11001000 /
b11000111 0
11
b11001000 >

#2100000
0!
b100 $
b101 %
b110 &
b111 '
b10011001 +
b10010010 ,
b10000010 -
b11111000 .
01
b100 4
b101 5
b110 6
b111 7
b10011001 :
b10010010 ;
b10000010 <
b11111000 =

#2105000
1!
b10011001 )
b11001001 *
b11001001 /
b11001000 0
11
b10011001 9
b11001001 >

#2110000
0!
01

#2115000
1!
b11001010 *
b11001010 /
b11001001 0
11
b11001010 >

#2120000
0!
01

#2125000
1!
b11001011 *
b11001011 /
b11001010 0
11
b11001011 >

#2130000
0!
01

#2135000
1!
b11001100 *
b11001100 /
b11001011 0
11
b11001100 >

#2140000
0!
01

#2145000
1!
b11001101 *
b11001101 /
b11001100 0
11
b11001101 >

#2150000
0!
01

#2155000
1!
b11001110 *
b11001110 /
b11001101 0
11
b11001110 >

#2160000
0!
01

#2165000
1!
b11001111 *
b11001111 /
b11001110 0
11
b11001111 >

#2170000
0!
01

#2175000
1!
b11010000 *
b11010000 /
b11001111 0
11
b11010000 >

#2180000
0!
01

#2185000
1!
b11010001 *
b11010001 /
b11010000 0
11
b11010001 >

#2190000
0!
01

#2195000
1!
b11010010 *
b11010010 /
b11010001 0
11
b11010010 >

#2200000
0!
01

#2205000
1!
b11010011 *
b11010011 /
b11010010 0
11
b11010011 >

#2210000
0!
01

#2215000
1!
b11010100 *
b11010100 /
b11010011 0
11
b11010100 >

#2220000
0!
01

#2225000
1!
b11010101 *
b11010101 /
b11010100 0
11
b11010101 >

#2230000
0!
01

#2235000
1!
b11010110 *
b11010110 /
b11010101 0
11
b11010110 >

#2240000
0!
01

#2245000
1!
b11010111 *
b11010111 /
b11010110 0
11
b11010111 >

#2250000
0!
01

#2255000
1!
b11011000 *
b11011000 /
b11010111 0
11
b11011000 >

#2260000
0!
01

#2265000
1!
b11011001 *
b11011001 /
b11011000 0
11
b11011001 >

#2270000
0!
01

#2275000
1!
b11011010 *
b11011010 /
b11011001 0
11
b11011010 >

#2280000
0!
01

#2285000
1!
b11011011 *
b11011011 /
b11011010 0
11
b11011011 >

#2290000
0!
01

#2295000
1!
b11011100 *
b11011100 /
b11011011 0
11
b11011100 >

#2300000
0!
01

#2305000
1!
b11011101 *
b11011101 /
b11011100 0
11
b11011101 >

#2310000
0!
01

#2315000
1!
b11011110 *
b11011110 /
b11011101 0
11
b11011110 >

#2320000
0!
01

#2325000
1!
b11011111 *
b11011111 /
b11011110 0
11
b11011111 >

#2330000
0!
01

#2335000
1!
b11100000 *
b11100000 /
b11011111 0
11
b11100000 >

#2340000
0!
01

#2345000
1!
b11100001 *
b11100001 /
b11100000 0
11
b11100001 >

#2350000
0!
01

#2355000
1!
b11100010 *
b11100010 /
b11100001 0
11
b11100010 >

#2360000
0!
01

#2365000
1!
b11100011 *
b11100011 /
b11100010 0
11
b11100011 >

#2370000
0!
01

#2375000
1!
b11100100 *
b11100100 /
b11100011 0
11
b11100100 >

#2380000
0!
01

#2385000
1!
b11100101 *
b11100101 /
b11100100 0
11
b11100101 >

#2390000
0!
01

#2395000
1!
b11100110 *
b11100110 /
b11100101 0
11
b11100110 >

#2400000
0!
01

#2405000
1!
b11100111 *
b11100111 /
b11100110 0
11
b11100111 >

#2410000
0!
01

#2415000
1!
b11101000 *
b11101000 /
b11100111 0
11
b11101000 >

#2420000
0!
01

#2425000
1!
b11101001 *
b11101001 /
b11101000 0
11
b11101001 >

#2430000
0!
01

#2435000
1!
b11101010 *
b11101010 /
b11101001 0
11
b11101010 >

#2440000
0!
01

#2445000
1!
b11101011 *
b11101011 /
b11101010 0
11
b11101011 >

#2450000
0!
01

#2455000
1!
b11101100 *
b11101100 /
b11101011 0
11
b11101100 >

#2460000
0!
01

#2465000
1!
b11101101 *
b11101101 /
b11101100 0
11
b11101101 >

#2470000
0!
01

#2475000
1!
b11101110 *
b11101110 /
b11101101 0
11
b11101110 >

#2480000
0!
01

#2485000
1!
b11101111 *
b11101111 /
b11101110 0
11
b11101111 >

#2490000
0!
01

#2495000
1!
b11110000 *
b11110000 /
b11101111 0
11
b11110000 >

#2500000
0!
01

#2505000
1!
b11110001 *
b11110001 /
b11110000 0
11
b11110001 >

#2510000
0!
01

#2515000
1!
b11110010 *
b11110010 /
b11110001 0
11
b11110010 >

#2520000
0!
01

#2525000
1!
b11110011 *
b11110011 /
b11110010 0
11
b11110011 >

#2530000
0!
01

#2535000
1!
b11110100 *
b11110100 /
b11110011 0
11
b11110100 >

#2540000
0!
01

#2545000
1!
b11110101 *
b11110101 /
b11110100 0
11
b11110101 >

#2550000
0!
01

#2555000
1!
b11110110 *
b11110110 /
b11110101 0
11
b11110110 >

#2560000
0!
01

#2565000
1!
b11110111 *
b11110111 /
b11110110 0
11
b11110111 >

#2570000
0!
01

#2575000
1!
b11111000 *
b11111000 /
b11110111 0
11
b11111000 >

#2580000
0!
01

#2585000
1!
b11111001 *
b11111001 /
b11111000 0
11
b11111001 >

#2590000
0!
01

#2595000
1!
b11111010 *
b11111010 /
b11111001 0
11
b11111010 >

#2600000
0!
01

#2605000
1!
b11111011 *
b11111011 /
b11111010 0
11
b11111011 >

#2610000
0!
01

#2615000
1!
b11111100 *
b11111100 /
b11111011 0
11
b11111100 >

#2620000
0!
01

#2625000
1!
b11111101 *
b11111101 /
b11111100 0
11
b11111101 >

#2630000
0!
01

#2635000
1!
b11111110 *
b11111110 /
b11111101 0
11
b11111110 >

#2640000
0!
01

#2645000
1!
b11111111 *
b11111111 /
b11111110 0
11
b11111111 >

#2650000
0!
01

#2655000
1!
b100000000 *
b100000000 /
b11111111 0
11
b100000000 >

#2660000
0!
01

#2665000
1!
b100000001 *
b100000001 /
b100000000 0
11
b100000001 >

#2670000
0!
01

#2675000
1!
b100000010 *
b100000010 /
b100000001 0
11
b100000010 >

#2680000
0!
01

#2685000
1!
b100000011 *
b100000011 /
b100000010 0
11
b100000011 >

#2690000
0!
01

#2695000
1!
b100000100 *
b100000100 /
b100000011 0
11
b100000100 >

#2700000
0!
01

#2705000
1!
b100000101 *
b100000101 /
b100000100 0
11
b100000101 >

#2710000
0!
01

#2715000
1!
b100000110 *
b100000110 /
b100000101 0
11
b100000110 >

#2720000
0!
01

#2725000
1!
b100000111 *
b100000111 /
b100000110 0
11
b100000111 >

#2730000
0!
01

#2735000
1!
b100001000 *
b100001000 /
b100000111 0
11
b100001000 >

#2740000
0!
01

#2745000
1!
b100001001 *
b100001001 /
b100001000 0
11
b100001001 >

#2750000
0!
01

#2755000
1!
b100001010 *
b100001010 /
b100001001 0
11
b100001010 >

#2760000
0!
01

#2765000
1!
b100001011 *
b100001011 /
b100001010 0
11
b100001011 >

#2770000
0!
01

#2775000
1!
b100001100 *
b100001100 /
b100001011 0
11
b100001100 >

#2780000
0!
01

#2785000
1!
b100001101 *
b100001101 /
b100001100 0
11
b100001101 >

#2790000
0!
01

#2795000
1!
b100001110 *
b100001110 /
b100001101 0
11
b100001110 >

#2800000
0!
01

#2805000
1!
b100001111 *
b100001111 /
b100001110 0
11
b100001111 >

#2810000
0!
01

#2815000
1!
b100010000 *
b100010000 /
b100001111 0
11
b100010000 >

#2820000
0!
01

#2825000
1!
b100010001 *
b100010001 /
b100010000 0
11
b100010001 >

#2830000
0!
01

#2835000
1!
b100010010 *
b100010010 /
b100010001 0
11
b100010010 >

#2840000
0!
01

#2845000
1!
b100010011 *
b100010011 /
b100010010 0
11
b100010011 >

#2850000
0!
01

#2855000
1!
b100010100 *
b100010100 /
b100010011 0
11
b100010100 >

#2860000
0!
01

#2865000
1!
b100010101 *
b100010101 /
b100010100 0
11
b100010101 >

#2870000
0!
01

#2875000
1!
b100010110 *
b100010110 /
b100010101 0
11
b100010110 >

#2880000
0!
01

#2885000
1!
b100010111 *
b100010111 /
b100010110 0
11
b100010111 >

#2890000
0!
01

#2895000
1!
b100011000 *
b100011000 /
b100010111 0
11
b100011000 >

#2900000
0!
01

#2905000
1!
b100011001 *
b100011001 /
b100011000 0
11
b100011001 >

#2910000
0!
01

#2915000
1!
b100011010 *
b100011010 /
b100011001 0
11
b100011010 >

#2920000
0!
01

#2925000
1!
b100011011 *
b100011011 /
b100011010 0
11
b100011011 >

#2930000
0!
01

#2935000
1!
b100011100 *
b100011100 /
b100011011 0
11
b100011100 >

#2940000
0!
01

#2945000
1!
b100011101 *
b100011101 /
b100011100 0
11
b100011101 >

#2950000
0!
01

#2955000
1!
b100011110 *
b100011110 /
b100011101 0
11
b100011110 >

#2960000
0!
01

#2965000
1!
b100011111 *
b100011111 /
b100011110 0
11
b100011111 >

#2970000
0!
01

#2975000
1!
b100100000 *
b100100000 /
b100011111 0
11
b100100000 >

#2980000
0!
01

#2985000
1!
b100100001 *
b100100001 /
b100100000 0
11
b100100001 >

#2990000
0!
01

#2995000
1!
b100100010 *
b100100010 /
b100100001 0
11
b100100010 >

#3000000
0!
01

#3005000
1!
b100100011 *
b100100011 /
b100100010 0
11
b100100011 >

#3010000
0!
01

#3015000
1!
b100100100 *
b100100100 /
b100100011 0
11
b100100100 >

#3020000
0!
01

#3025000
1!
b100100101 *
b100100101 /
b100100100 0
11
b100100101 >

#3030000
0!
01

#3035000
1!
b100100110 *
b100100110 /
b100100101 0
11
b100100110 >

#3040000
0!
01

